traffic_light_fsm_project/traffic_light.vcd
$date
	Fri Jun  6 13:58:15 2025
$end
$version
	Icarus Verilog
$end
$timescale
	1ps
$end
$scope module traffic_light_tb $end
$var wire 3 ! light [2:0] $end
$var reg 1 " clk $end
$var reg 1 # reset $end
$scope module uut $end
$var wire 1 " clk $end
$var wire 1 # reset $end
$var reg 4 $ counter [3:0] $end
$var reg 2 % current_state [1:0] $end
$var reg 3 & light [2:0] $end
$var reg 2 ' next_state [1:0] $end
$upscope $end
$upscope $end
$enddefinitions $end
$comment Show the parameter values. $end
$dumpall
$end
#0
$dumpvars
b1 '
b100 &
b0 %
b0 $
1#
0"
b100 !
$end
#5000
1"
#10000
0"
0#
#15000
b1 $
1"
#20000
0"
#25000
b10 $
1"
#30000
0"
#35000
b11 $
1"
#40000
0"
#45000
b100 $
1"
#50000
0"
#55000
b10 '
b1 !
b1 &
b0 $
b1 %
1"
#60000
0"
#65000
b1 $
1"
#70000
0"
#75000
b10 $
1"
#80000
0"
#85000
b11 $
1"
#90000
0"
#95000
b100 $
1"
#100000
0"
#105000
b0 '
b10 !
b10 &
b0 $
b10 %
1"
#110000
0"
#115000
b1 $
1"
#120000
0"
#125000
b10 $
1"
#130000
0"
#135000
b1 '
b100 !
b100 &
b0 $
b0 %
1"
#140000
0"
#145000
b1 $
1"
#150000
0"
#155000
b10 $
1"
#160000
0"
#165000
b11 $
1"
#170000
0"
#175000
b100 $
1"
#180000
0"
#185000
b10 '
b1 !
b1 &
b0 $
b1 %
1"
#190000
0"
#195000
b1 $
1"
#200000
0"
#205000
b10 $
1"
